3.22 TIL20220322 | Today I Learned in 2022
…
##       Estimator       Lower     Upper Statistic   p.Value
## 2 - 1 0.0177057 -0.04437702 0.0796522  0.627583 0.7107447
## 3 - 1 0.4902399  0.45709074 0.5220290 27.621509 0.0000000
## 3 - 2 0.4725342  0.43792131 0.5057482 25.875668 0.0000000
## 
## $Overall
##   Quantile p.Value
## 1 2.201406       0
## 
## $input
## $input$formula
## body_mass_g ~ species
## 
## $input$data
## # A tibble: 344 × 8
##    species island    bill_length_mm bill_depth_mm flipper_length_mm body_mass_g
##    <fct>   <fct>              <dbl>         <dbl>             <int>       <int>
##  1 Adelie  Torgersen           39.1          18.7               181        3750
##  2 Adelie  Torgersen           39.5          17.4               186        3800
##  3 Adelie  Torgersen           40.3          18                 195        3250
##  4 Adelie  Torgersen           NA            NA                  NA          NA
##  5 Adelie  Torgersen           36.7          19.3               193        3450
##  6 Adelie  Torgersen           39.3          20.6               190        3650
##  7 Adelie  Torgersen           38.9          17.8               181        3625
##  8 Adelie  Torgersen           39.2          19.6               195        4675
##  9 Adelie  Torgersen           34.1          18.1               193        3475
## 10 Adelie  Torgersen           42            20.2               190        4250
## # … with 334 more rows, and 2 more variables: sex <fct>, year <int>
## 
## $input$type
## [1] "Tukey"
## 
## $input$conf.level
## [1] 0.95
## 
## $input$alternative
…
